dff.vcd
$date
	Mon Apr 23 22:55:18 2018
$end
$version
	Icarus Verilog
$end
$timescale
	100ps
$end
$scope module Mips_tb $end
$var reg 1 ! clk $end
$var reg 11 " i [10:0] $end
$var reg 1 # rst $end
$scope module U_mips $end
$var wire 1 $ IFID_flusher $end
$var wire 1 % PC_staller $end
$var wire 1 ! clock $end
$var wire 1 & pRegWrite $end
$var wire 1 # reset $end
$var wire 32 ' forward_alu_final_in_B [31:0] $end
$var wire 32 ( forward_alu_final_in_A [31:0] $end
$var wire 2 ) forwardB [1:0] $end
$var wire 2 * forwardA [1:0] $end
$var wire 1 + WB_last_memToReg $end
$var wire 32 , WB_last_memOut [31:0] $end
$var wire 32 - WB_last_aluOut [31:0] $end
$var wire 32 . WB_ID_writeBack [31:0] $end
$var wire 5 / WB_ID_gprWriteAddr [4:0] $end
$var wire 1 0 WB_ID_gprWrite $end
$var wire 1 1 STALL_do_stall $end
$var wire 1 2 M_last_zero $end
$var wire 1 3 M_last_regW $end
$var wire 1 4 M_last_pcSel $end
$var wire 1 5 M_last_nbranch $end
$var wire 1 6 M_last_memW $end
$var wire 1 7 M_last_memToR $end
$var wire 1 8 M_last_memR $end
$var wire 5 9 M_last_gprDes [4:0] $end
$var wire 32 : M_last_gprB [31:0] $end
$var wire 32 ; M_last_aluResult [31:0] $end
$var wire 32 < M_dmResult_next [31:0] $end
$var wire 1 = M_IF_doBranch $end
$var wire 32 > M_IF_BPC [31:0] $end
$var wire 32 ? IF_pc_return [31:0] $end
$var wire 32 @ IF_pc_im [31:0] $end
$var wire 32 A IF_ir_next [31:0] $end
$var wire 5 B ID_shamt_next [4:0] $end
$var wire 5 C ID_rt_gpr [4:0] $end
$var wire 5 D ID_rs_gpr [4:0] $end
$var wire 1 E ID_regDst_next $end
$var wire 5 F ID_rd_gpr [4:0] $end
$var wire 1 G ID_pcSel_next $end
$var wire 6 H ID_opcode_ctrl [5:0] $end
$var wire 1 I ID_nbranch_next $end
$var wire 1 J ID_memW_next $end
$var wire 1 K ID_memToR_next $end
$var wire 1 L ID_memR_next $end
$var wire 32 M ID_last_PC [31:0] $end
$var wire 32 N ID_last_IR [31:0] $end
$var wire 16 O ID_imm_ext [15:0] $end
$var wire 32 P ID_gprB_next [31:0] $end
$var wire 32 Q ID_gprA_next [31:0] $end
$var wire 6 R ID_funct_ctrl [5:0] $end
$var wire 2 S ID_extop_ext [1:0] $end
$var wire 32 T ID_extended_next [31:0] $end
$var wire 1 U ID_aluSrc_next $end
$var wire 1 V ID_aluShift_next $end
$var wire 5 W ID_aluCtrl_next [4:0] $end
$var wire 1 X ID_RegW_next $end
$var wire 1 Y ID_PC_jump $end
$var wire 32 Z ID_IF_jumpAddr [31:0] $end
$var wire 5 [ EX_muxR_next [4:0] $end
$var wire 32 \ EX_muxB_alu [31:0] $end
$var wire 5 ] EX_last_shamt [4:0] $end
$var wire 5 ^ EX_last_rt_mux [4:0] $end
$var wire 5 _ EX_last_rs_forward [4:0] $end
$var wire 1 ` EX_last_regW $end
$var wire 1 a EX_last_regDst_muxR $end
$var wire 5 b EX_last_rd_mux [4:0] $end
$var wire 1 c EX_last_pcSel $end
$var wire 1 d EX_last_nbranch $end
$var wire 1 e EX_last_memW $end
$var wire 1 f EX_last_memToR $end
$var wire 1 g EX_last_memR $end
$var wire 32 h EX_last_gprB_muxB [31:0] $end
$var wire 32 i EX_last_gprA_alu [31:0] $end
$var wire 32 j EX_last_ext [31:0] $end
$var wire 1 k EX_last_aluSrc_muxB $end
$var wire 1 l EX_last_aluShift $end
$var wire 32 m EX_last_PC [31:0] $end
$var wire 32 n EX_branchAddr_next [31:0] $end
$var wire 1 o EX_aluZero_next $end
$var wire 32 p EX_aluResult_next [31:0] $end
$var wire 5 q EX_aluCtrl_alu [4:0] $end
$scope module ALU $end
$var wire 32 r DataIn1 [31:0] $end
$var wire 32 s DataIn2 [31:0] $end
$var wire 5 t AluCtrl [4:0] $end
$var reg 32 u AluResult [31:0] $end
$var reg 1 o Zero $end
$var reg 32 v temp [31:0] $end
$upscope $end
$scope module DMEM $end
$var wire 5 w DataAdr [4:0] $end
$var wire 32 x DataOut [31:0] $end
$var wire 1 ! clk $end
$var wire 32 y DataIn [31:0] $end
$var wire 1 6 DMemW $end
$var wire 1 8 DMemR $end
$upscope $end
$scope module ELOHIM $end
$var wire 6 z OpCode [5:0] $end
$var wire 6 { funct [5:0] $end
$var reg 1 V AluShift $end
$var reg 5 | Aluctrl [4:0] $end
$var reg 1 U Alusrc $end
$var reg 1 G Branch $end
$var reg 2 } ExtOp [1:0] $end
$var reg 1 K Mem2R $end
$var reg 1 L MemR $end
$var reg 1 J MemW $end
$var reg 1 I NBranch $end
$var reg 1 E RegDst $end
$var reg 1 X RegW $end
$var reg 1 Y jump $end
$upscope $end
$scope module EXT $end
$var wire 16 ~ DataIn [15:0] $end
$var wire 2 !" ExtOp [1:0] $end
$var reg 32 "" ExtOut [31:0] $end
$upscope $end
$scope module FORWARD $end
$var wire 2 #" forwardB [1:0] $end
$var wire 2 $" forwardA [1:0] $end
$var wire 1 0 M_WB_regWrite $end
$var wire 5 %" M_WB_rd [4:0] $end
$var wire 5 &" ID_EX_rt [4:0] $end
$var wire 5 '" ID_EX_rs [4:0] $end
$var wire 1 3 EX_M_regWrite $end
$var wire 5 (" EX_M_rd [4:0] $end
$upscope $end
$scope module PC_UNIT $end
$var wire 1 ! Clk $end
$var wire 1 # PcReSet $end
$var wire 1 = PcSel $end
$var wire 1 % do_stall $end
$var wire 1 Y dojump $end
$var wire 32 )" jumpAddr [31:0] $end
$var wire 32 *" nextPC [31:0] $end
$var wire 2 +" selector [1:0] $end
$var wire 32 ," branchAddr [31:0] $end
$var reg 32 -" PC [31:0] $end
$var reg 32 ." realBranchAddr [31:0] $end
$var reg 32 /" realJumpAddr [31:0] $end
$upscope $end
$scope module P_EXMEM $end
$var wire 32 0" BPC_in [31:0] $end
$var wire 1 & Write $end
$var wire 32 1" aluOut_in [31:0] $end
$var wire 1 ! clk $end
$var wire 1 2" do_flush $end
$var wire 32 3" gprB_in [31:0] $end
$var wire 5 4" gprDes_in [4:0] $end
$var wire 1 # rst $end
$var wire 1 o zero_in $end
$var wire 1 ` regW_in $end
$var wire 1 c pcSel_in $end
$var wire 1 d nbranch_in $end
$var wire 1 e memW_in $end
$var wire 1 f memToR_in $end
$var wire 1 g memR_in $end
$var reg 32 5" BPC_mid [31:0] $end
$var reg 32 6" BPC_out [31:0] $end
$var reg 32 7" aluOut_mid [31:0] $end
$var reg 32 8" aluOut_out [31:0] $end
$var reg 32 9" gprB_mid [31:0] $end
$var reg 32 :" gprB_out [31:0] $end
$var reg 5 ;" gprDes_mid [4:0] $end
$var reg 5 <" gprDes_out [4:0] $end
$var reg 1 =" memR_mid $end
$var reg 1 8 memR_out $end
$var reg 1 >" memToR_mid $end
$var reg 1 7 memToR_out $end
$var reg 1 ?" memW_mid $end
$var reg 1 6 memW_out $end
$var reg 1 @" nbranch_mid $end
$var reg 1 5 nbranch_out $end
$var reg 1 A" pcSel_mid $end
$var reg 1 4 pcSel_out $end
$var reg 1 B" regW_mid $end
$var reg 1 3 regW_out $end
$var reg 1 C" zero_mid $end
$var reg 1 2 zero_out $end
$upscope $end
$scope module P_GPR $end
$var wire 5 D" ReSel1 [4:0] $end
$var wire 5 E" ReSel2 [4:0] $end
$var wire 32 F" WData [31:0] $end
$var wire 1 ! clk $end
$var wire 5 G" WeSel [4:0] $end
$var wire 1 0 WE $end
$var wire 32 H" DataOut2 [31:0] $end
$var wire 32 I" DataOut1 [31:0] $end
$upscope $end
$scope module P_IDEX $end
$var wire 5 J" ALUop_in [4:0] $end
$var wire 1 U ALUsrc_in $end
$var wire 1 V AluShift_in $end
$var wire 1 G Branch_in $end
$var wire 1 L Mread_in $end
$var wire 1 K MtoR_in $end
$var wire 1 J Mwrite_in $end
$var wire 1 E RegDst_in $end
$var wire 1 X RegWrite_in $end
$var wire 1 & Write $end
$var wire 1 ! clk $end
$var wire 32 K" ext_in [31:0] $end
$var wire 32 L" gprA_in [31:0] $end
$var wire 32 M" gprB_in [31:0] $end
$var wire 1 I nbranch_in $end
$var wire 5 N" rd_in [4:0] $end
$var wire 5 O" rs_in [4:0] $end
$var wire 1 # rst $end
$var wire 5 P" rt_in [4:0] $end
$var wire 5 Q" shamt_in [4:0] $end
$var wire 1 1 do_flush $end
$var wire 32 R" PC_in [31:0] $end
$var reg 5 S" ALUop_mid [4:0] $end
$var reg 5 T" ALUop_out [4:0] $end
$var reg 1 U" ALUsrc_mid $end
$var reg 1 k ALUsrc_out $end
$var reg 1 V" AluShift_mid $end
$var reg 1 l AluShift_out $end
$var reg 1 W" Branch_mid $end
$var reg 1 c Branch_out $end
$var reg 1 X" Mread_mid $end
$var reg 1 g Mread_out $end
$var reg 1 Y" MtoR_mid $end
$var reg 1 f MtoR_out $end
$var reg 1 Z" Mwrite_mid $end
$var reg 1 e Mwrite_out $end
$var reg 32 [" PC_mid [31:0] $end
$var reg 32 \" PC_out [31:0] $end
$var reg 1 ]" RegDst_mid $end
$var reg 1 a RegDst_out $end
$var reg 1 ^" RegWrite_mid $end
$var reg 1 ` RegWrite_out $end
$var reg 32 _" ext_mid [31:0] $end
$var reg 32 `" ext_out [31:0] $end
$var reg 32 a" gprA_mid [31:0] $end
$var reg 32 b" gprA_out [31:0] $end
$var reg 32 c" gprB_mid [31:0] $end
$var reg 32 d" gprB_out [31:0] $end
$var reg 1 e" nbranch_mid $end
$var reg 1 d nbranch_out $end
$var reg 5 f" rd_mid [4:0] $end
$var reg 5 g" rd_out [4:0] $end
$var reg 5 h" rs_mid [4:0] $end
$var reg 5 i" rs_out [4:0] $end
$var reg 5 j" rt_mid [4:0] $end
$var reg 5 k" rt_out [4:0] $end
$var reg 5 l" shamt_mid [4:0] $end
$var reg 5 m" shamt_out [4:0] $end
$upscope $end
$scope module P_IFID $end
$var wire 32 n" PC_in [31:0] $end
$var wire 1 & Write $end
$var wire 1 ! clk $end
$var wire 1 $ do_flush $end
$var wire 1 # rst $end
$var wire 1 1 do_stall $end
$var wire 32 o" IR_in [31:0] $end
$var reg 32 p" IR_mid [31:0] $end
$var reg 32 q" IR_out [31:0] $end
$var reg 32 r" PC_mid [31:0] $end
$var reg 32 s" PC_out [31:0] $end
$upscope $end
$scope module P_IM $end
$var wire 5 t" ImAdress [4:0] $end
$var wire 32 u" OpCode [31:0] $end
$var reg 32 v" Opcode [31:0] $end
$upscope $end
$scope module P_MEMWB $end
$var wire 1 & Write $end
$var wire 32 w" aluOut_in [31:0] $end
$var wire 1 ! clk $end
$var wire 5 x" gprDes_in [4:0] $end
$var wire 32 y" memOut_in [31:0] $end
$var wire 1 7 memToR_in $end
$var wire 1 3 regW_in $end
$var wire 1 # rst $end
$var reg 32 z" aluOut_mid [31:0] $end
$var reg 32 {" aluOut_out [31:0] $end
$var reg 5 |" gprDes_mid [4:0] $end
$var reg 5 }" gprDes_out [4:0] $end
$var reg 32 ~" memOut_mid [31:0] $end
$var reg 32 !# memOut_out [31:0] $end
$var reg 1 "# memToR_mid $end
$var reg 1 + memToR_out $end
$var reg 1 ## regW_mid $end
$var reg 1 0 regW_out $end
$upscope $end
$scope module STALL $end
$var wire 5 $# EX_M_rd [4:0] $end
$var wire 1 g ID_EX_memRead $end
$var wire 5 %# ID_EX_rd [4:0] $end
$var wire 5 &# ID_EX_rt [4:0] $end
$var wire 1 J IF_ID_memWrite $end
$var wire 5 '# IF_ID_rs [4:0] $end
$var wire 5 (# IF_ID_rt [4:0] $end
$var wire 1 1 do_stall $end
$upscope $end
$upscope $end
$upscope $end
$scope module mux16 $end
$var wire 8 )# d0 [7:0] $end
$var wire 8 *# d1 [7:0] $end
$var wire 8 +# d10 [7:0] $end
$var wire 8 ,# d11 [7:0] $end
$var wire 8 -# d12 [7:0] $end
$var wire 8 .# d13 [7:0] $end
$var wire 8 /# d14 [7:0] $end
$var wire 8 0# d15 [7:0] $end
$var wire 8 1# d2 [7:0] $end
$var wire 8 2# d3 [7:0] $end
$var wire 8 3# d4 [7:0] $end
$var wire 8 4# d5 [7:0] $end
$var wire 8 5# d6 [7:0] $end
$var wire 8 6# d7 [7:0] $end
$var wire 8 7# d8 [7:0] $end
$var wire 8 8# d9 [7:0] $end
$var wire 4 9# s [3:0] $end
$var wire 8 :# y [7:0] $end
$var reg 8 ;# y_r [7:0] $end
$upscope $end
$scope module mux2 $end
$var wire 8 <# d0 [7:0] $end
$var wire 8 =# d1 [7:0] $end
$var wire 1 ># s $end
$var wire 8 ?# y [7:0] $end
$upscope $end
$scope module mux4 $end
$var wire 8 @# d0 [7:0] $end
$var wire 8 A# d1 [7:0] $end
$var wire 8 B# d2 [7:0] $end
$var wire 8 C# d3 [7:0] $end
$var wire 2 D# s [1:0] $end
$var wire 8 E# y [7:0] $end
$var reg 8 F# y_r [7:0] $end
$upscope $end
$scope module mux8 $end
$var wire 8 G# d0 [7:0] $end
$var wire 8 H# d1 [7:0] $end
$var wire 8 I# d2 [7:0] $end
$var wire 8 J# d3 [7:0] $end
$var wire 8 K# d4 [7:0] $end
$var wire 8 L# d5 [7:0] $end
$var wire 8 M# d6 [7:0] $end
$var wire 8 N# d7 [7:0] $end
$var wire 3 O# s [2:0] $end
$var wire 8 P# y [7:0] $end
$var reg 8 Q# y_r [7:0] $end
$upscope $end
$scope module pipeline_ctrl $end
$var wire 1 R# branch $end
$var wire 1 S# jump $end
$var wire 4 T# pipeline_lock [3:0] $end
$var wire 4 U# pipeline_clear [3:0] $end
$upscope $end
$enddefinitions $end
#150
$dumpvars
b0xx U#
b1111 T#
zS#
zR#
bx Q#
bx P#
bz O#
bz N#
bz M#
bz L#
bz K#
bz J#
bz I#
bz H#
bz G#
bx F#
bx E#
bz D#
bz C#
bz B#
bz A#
bz @#
bz ?#
z>#
bz =#
bz <#
bx ;#
bx :#
bz 9#
bz 8#
bz 7#
bz 6#
bz 5#
bz 4#
bz 3#
bz 2#
bz 1#
bz 0#
bz /#
bz .#
bz -#
bz ,#
bz +#
bz *#
bz )#
b0 (#
b0 '#
b0 &#
b0 %#
b0 $#
0##
0"#
b0 !#
b0 ~"
b0 }"
b0 |"
b0 {"
b0 z"
bx y"
b0 x"
b0 w"
b111100000000010001000000000000 v"
b111100000000010001000000000000 u"
b0 t"
b0 s"
b0 r"
b0 q"
b0 p"
b111100000000010001000000000000 o"
b11000000000100 n"
b0 m"
b0 l"
b0 k"
b0 j"
b0 i"
b0 h"
b0 g"
b0 f"
0e"
b0 d"
b0 c"
b0 b"
b0 a"
b0 `"
b0 _"
0^"
0]"
b0 \"
b0 ["
0Z"
0Y"
0X"
0W"
0V"
0U"
b0 T"
b0 S"
b0 R"
b0 Q"
b0 P"
b0 O"
b0 N"
b0 M"
b0 L"
b0 K"
b10001 J"
b0 I"
b0 H"
b0 G"
b0 F"
b0 E"
b0 D"
0C"
0B"
0A"
0@"
0?"
0>"
0="
b0 <"
b0 ;"
b0 :"
b0 9"
b0 8"
b0 7"
b0 6"
b0 5"
b0 4"
b0 3"
02"
b0 1"
b0 0"
bx /"
bx ."
b11000000000000 -"
b0 ,"
b0 +"
b11000000000100 *"
b0 )"
b0 ("
b0 '"
b0 &"
b0 %"
b0 $"
b0 #"
b0 ""
b0 !"
b0 ~
b0 }
b10001 |
b0 {
b0 z
b0 y
bx x
b0 w
b0 v
b0 u
b0 t
b0 s
b0 r
b0 q
b0 p
1o
b0 n
b0 m
0l
0k
b0 j
b0 i
b0 h
0g
0f
0e
0d
0c
b0 b
0a
0`
b0 _
b0 ^
b0 ]
b0 \
b0 [
b0 Z
0Y
1X
b10001 W
1V
0U
b0 T
b0 S
b0 R
b0 Q
b0 P
b0 O
b0 N
b0 M
0L
0K
0J
0I
b0 H
0G
b0 F
0E
b0 D
b0 C
b0 B
b111100000000010001000000000000 A
b11000000000000 @
b11000000000100 ?
b0 >
0=
bx <
b0 ;
b0 :
b0 9
08
07
06
05
04
03
02
01
00
b0 /
b0 .
b0 -
b0 ,
0+
b0 *
b0 )
b0 (
b0 '
1&
0%
0$
0#
b10100 "
1!
$end
#500
b0 /"
b0 ."
b111100000000010001000000000000 p"
b11000000000100 r"
1^"
1V"
b10001 S"
1C"
bx ~"
0!
#1000
bx ,
bx !#
bx P
bx H"
bx M"
b110100001000010010001000010001 A
b110100001000010010001000010001 o"
b110100001000010010001000010001 u"
b110100001000010010001000010001 v"
b10000000000000000000000000000 T
b10000000000000000000000000000 ""
b10000000000000000000000000000 K"
b1 W
b1 |
b1 J"
b10 S
b10 }
b10 !"
0V
1U
1E
b1 t"
b1000100000000000000 Z
b1000100000000000000 )"
b1000000000000 O
b1000000000000 ~
b10 F
b10 N"
b1 C
b1 E"
b1 P"
b1 (#
b1111 H
b1111 z
b11000000001000 ?
b11000000001000 *"
b11000000001000 n"
b11000000000100 @
b11000000000100 -"
b111100000000010001000000000000 N
b111100000000010001000000000000 q"
b11000000000100 M
b11000000000100 R"
b11000000000100 s"
1`
1l
b10001 q
b10001 t
b10001 T"
12
1!
#1500
1B"
b10000000000000000000000000000 _"
0V"
1U"
b1 S"
1]"
bx c"
b1 j"
b10 f"
b11000000000100 ["
b110100001000010010001000010001 p"
b11000000001000 r"
b1000100000000000000 /"
0!
#2000
bx Q
bx I"
bx L"
0o
b10000000000000000000000000000 p
b10000000000000000000000000000 u
b10000000000000000000000000000 1"
b10001000010001 T
b10001000010001 ""
b10001000010001 K"
b110 W
b110 |
b110 J"
b0 S
b0 }
b0 !"
b111100000000100001000000000000 A
b111100000000100001000000000000 o"
b111100000000100001000000000000 u"
b111100000000100001000000000000 v"
b10000000000000000000000000000 \
b10000000000000000000000000000 s
bx '
bx 3"
b1 [
b1 4"
b1 %#
b100001001000100001000100 Z
b100001001000100001000100 )"
b10001000010001 O
b10001000010001 ~
b100 F
b100 N"
b1 D
b1 D"
b1 O"
b1 '#
b10001 R
b10001 {
b1000 B
b1000 Q"
b1101 H
b1101 z
b10 t"
13
b10000000000000000000000000000 j
b10000000000000000000000000000 `"
0l
1k
b1 q
b1 t
b1 T"
1a
bx h
bx d"
b1 ^
b1 &"
b1 k"
b1 &#
b10 b
b10 g"
b1000000000000000011000000000100 n
b1000000000000000011000000000100 0"
b11000000000100 m
b11000000000100 \"
b110100001000010010001000010001 N
b110100001000010010001000010001 q"
b11000000001000 M
b11000000001000 R"
b11000000001000 s"
b11000000001100 ?
b11000000001100 *"
b11000000001100 n"
b11000000001000 @
b11000000001000 -"
1!
#2500
b100001001000100001000100 /"
b111100000000100001000000000000 p"
b11000000001100 r"
b10001000010001 _"
b110 S"
bx a"
b1000 l"
b1 h"
b100 f"
b11000000001000 ["
0C"
bx 9"
b10000000000000000000000000000 7"
b1 ;"
b1000000000000000011000000000100 5"
1##
0!
#3000
10
b10000000000000000000000000000 '
b10000000000000000000000000000 3"
b0 Q
b0 I"
b0 L"
b110100010000100100010000110011 A
b110100010000100100010000110011 o"
b110100010000100100010000110011 u"
b110100010000100100010000110011 v"
b10000000000000000000000000000 T
b10000000000000000000000000000 ""
b10000000000000000000000000000 K"
b1 W
b1 |
b1 J"
b10 S
b10 }
b10 !"
b10000000000000010001000010001 p
b10000000000000010001000010001 u
b10000000000000010001000010001 1"
b10000000000000000000000000000 (
b10000000000000000000000000000 r
b10 )
b10 #"
b10 *
b10 $"
b11 t"
b10000100000000000000 Z
b10000100000000000000 )"
b1000000000000 O
b1000000000000 ~
b10 F
b10 N"
b10 C
b10 E"
b10 P"
b10 (#
b0 D
b0 D"
b0 O"
b0 '#
b0 R
b0 {
b0 B
b0 Q"
b1111 H
b1111 z
b10001000010001 \
b10001000010001 s
b11000000010000 ?
b11000000010000 *"
b11000000010000 n"
b11000000001100 @
b11000000001100 -"
b111100000000100001000000000000 N
b111100000000100001000000000000 q"
b11000000001100 M
b11000000001100 R"
b11000000001100 s"
b10001000010001 j
b10001000010001 `"
b110 q
b110 t
b110 T"
bx i
bx b"
b1000 ]
b1000 m"
b1 _
b1 '"
b1 i"
b100 b
b100 g"
b1011100001001100 n
b1011100001001100 0"
b11000000001000 m
b11000000001000 \"
02
bx :
bx y
bx :"
b10000000000000000000000000000 ;
b10000000000000000000000000000 8"
b10000000000000000000000000000 w"
b1 9
b1 ("
b1 <"
b1 x"
b1 $#
b1000000000000000011000000000100 >
b1000000000000000011000000000100 ,"
b1000000000000000011000000000100 6"
1!
#3500
b10000000000000000000000000000 z"
b1 |"
b10000000000000000000000000000 9"
b10000000000000010001000010001 7"
b1011100001001100 5"
b10000000000000000000000000000 _"
b1 S"
b0 a"
b0 l"
b0 h"
b10 j"
b10 f"
b11000000001100 ["
b110100010000100100010000110011 p"
b11000000010000 r"
b10000100000000000000 /"
b1000000000000000011000000000100 ."
0!
#4000
b10000000000000000000000000000 .
b10000000000000000000000000000 F"
b10000000000000000000000000000 -
b10000000000000000000000000000 {"
b1 /
b1 %"
b1 G"
b1 }"
bx Q
bx I"
bx L"
bx '
bx 3"
b0 (
b0 r
b10000000000000000000000000000 p
b10000000000000000000000000000 u
b10000000000000000000000000000 1"
b0 *
b0 $"
b0 )
b0 #"
b100010000110011 T
b100010000110011 ""
b100010000110011 K"
b110 W
b110 |
b110 J"
b0 S
b0 }
b0 !"
b10000010001100000100001 A
b10000010001100000100001 o"
b10000010001100000100001 u"
b10000010001100000100001 v"
b10001 w
b10000000000000000000000000000 \
b10000000000000000000000000000 s
b10 [
b10 4"
b10 %#
b1000010010001000011001100 Z
b1000010010001000011001100 )"
b100010000110011 O
b100010000110011 ~
b1000 F
b1000 N"
b10 D
b10 D"
b10 O"
b10 '#
b110011 R
b110011 {
b10000 B
b10000 Q"
b1101 H
b1101 z
b100 t"
b10000000000000000000000000000 :
b10000000000000000000000000000 y
b10000000000000000000000000000 :"
b10000000000000010001000010001 ;
b10000000000000010001000010001 8"
b10000000000000010001000010001 w"
b1011100001001100 >
b1011100001001100 ,"
b1011100001001100 6"
b10000000000000000000000000000 j
b10000000000000000000000000000 `"
b1 q
b1 t
b1 T"
b0 i
b0 b"
b0 ]
b0 m"
b0 _
b0 '"
b0 i"
b10 ^
b10 &"
b10 k"
b10 &#
b10 b
b10 g"
b1000000000000000011000000001100 n
b1000000000000000011000000001100 0"
b11000000001100 m
b11000000001100 \"
b110100010000100100010000110011 N
b110100010000100100010000110011 q"
b11000000010000 M
b11000000010000 R"
b11000000010000 s"
b11000000010100 ?
b11000000010100 *"
b11000000010100 n"
b11000000010000 @
b11000000010000 -"
1!
#4500
b1000010010001000011001100 /"
b1011100001001100 ."
b10000010001100000100001 p"
b11000000010100 r"
b100010000110011 _"
b110 S"
bx a"
b10000 l"
b10 h"
b1000 f"
b11000000010000 ["
bx 9"
b10000000000000000000000000000 7"
b10 ;"
b1000000000000000011000000001100 5"
b10000000000000010001000010001 z"
0!
#5000
b10000000000000010001000010001 .
b10000000000000010001000010001 F"
b10000000000000010001000010001 -
b10000000000000010001000010001 {"
b10000000000000000000000000000 '
b10000000000000000000000000000 3"
b10000000000000010001000010001 P
b10000000000000010001000010001 H"
b10000000000000010001000010001 M"
b10101100000000110000000000000000 A
b10101100000000110000000000000000 o"
b10101100000000110000000000000000 u"
b10101100000000110000000000000000 v"
b1100000100001 T
b1100000100001 ""
b1100000100001 K"
b1 W
b1 |
b1 J"
0U
0E
b10000000000000100010000110011 p
b10000000000000100010000110011 u
b10000000000000100010000110011 1"
b10000000000000000000000000000 (
b10000000000000000000000000000 r
b10 *
b10 $"
b10 )
b10 #"
b101 t"
b1000001000110000010000100 Z
b1000001000110000010000100 )"
b1100000100001 O
b1100000100001 ~
b11 F
b11 N"
b1 C
b1 E"
b1 P"
b1 (#
b100001 R
b100001 {
b0 B
b0 Q"
b0 H
b0 z
b100010000110011 \
b100010000110011 s
b0 w
b11000000011000 ?
b11000000011000 *"
b11000000011000 n"
b11000000010100 @
b11000000010100 -"
b10000010001100000100001 N
b10000010001100000100001 q"
b11000000010100 M
b11000000010100 R"
b11000000010100 s"
b100010000110011 j
b100010000110011 `"
b110 q
b110 t
b110 T"
bx i
bx b"
b10000 ]
b10000 m"
b10 _
b10 '"
b10 i"
b1000 b
b1000 g"
b10100000011011100 n
b10100000011011100 0"
b11000000010000 m
b11000000010000 \"
bx :
bx y
bx :"
b10000000000000000000000000000 ;
b10000000000000000000000000000 8"
b10000000000000000000000000000 w"
b10 9
b10 ("
b10 <"
b10 x"
b10 $#
b1000000000000000011000000001100 >
b1000000000000000011000000001100 ,"
b1000000000000000011000000001100 6"
1!
#5500
b10000000000000000000000000000 z"
b10 |"
b10000000000000000000000000000 9"
b10000000000000100010000110011 7"
b10100000011011100 5"
b1100000100001 _"
0U"
b1 S"
0]"
b10000000000000010001000010001 c"
b0 l"
b1 j"
b11 f"
b11000000010100 ["
b10101100000000110000000000000000 p"
b11000000011000 r"
b1000001000110000010000100 /"
b1000000000000000011000000001100 ."
0!
#6000
b10000000000000000000000000000 .
b10000000000000000000000000000 F"
b10000000000000000000000000000 -
b10000000000000000000000000000 {"
b10 /
b10 %"
b10 G"
b10 }"
bx P
bx H"
bx M"
b0 Q
b0 I"
b0 L"
b10000000000000010001000010001 '
b10000000000000010001000010001 3"
b10000000000000100010000110011 (
b10000000000000100010000110011 r
b100000000000000110011001000100 p
b100000000000000110011001000100 u
b100000000000000110011001000100 1"
b0 )
b0 #"
b0 T
b0 ""
b0 K"
b1 S
b1 }
b1 !"
1U
0X
1J
1E
b111100000001000011000000000000 A
b111100000001000011000000000000 o"
b111100000001000011000000000000 u"
b111100000001000011000000000000 v"
b10011 w
b10000000000000010001000010001 \
b10000000000000010001000010001 s
b11 [
b11 4"
b11 %#
b11000000000000000000 Z
b11000000000000000000 )"
b0 O
b0 ~
b0 F
b0 N"
b11 C
b11 E"
b11 P"
b11 (#
b0 D
b0 D"
b0 O"
b0 '#
b0 R
b0 {
b101011 H
b101011 z
b110 t"
b10000000000000000000000000000 :
b10000000000000000000000000000 y
b10000000000000000000000000000 :"
b10000000000000100010000110011 ;
b10000000000000100010000110011 8"
b10000000000000100010000110011 w"
b10100000011011100 >
b10100000011011100 ,"
b10100000011011100 6"
b1100000100001 j
b1100000100001 `"
0k
b1 q
b1 t
b1 T"
0a
b10000000000000010001000010001 h
b10000000000000010001000010001 d"
b0 ]
b0 m"
b1 ^
b1 &"
b1 k"
b1 &#
b11 b
b11 g"
b1001000010011000 n
b1001000010011000 0"
b11000000010100 m
b11000000010100 \"
b10101100000000110000000000000000 N
b10101100000000110000000000000000 q"
b11000000011000 M
b11000000011000 R"
b11000000011000 s"
b11000000011100 ?
b11000000011100 *"
b11000000011100 n"
b11000000011000 @
b11000000011000 -"
1!
#6500
b11000000000000000000 /"
b10100000011011100 ."
b111100000001000011000000000000 p"
b11000000011100 r"
b0 _"
0^"
1Z"
1U"
1]"
bx c"
b0 a"
b0 h"
b11 j"
b0 f"
b11000000011000 ["
b10000000000000010001000010001 9"
b100000000000000110011001000100 7"
b11 ;"
b1001000010011000 5"
b10000000000000100010000110011 z"
0!
#7000
b10000000000000100010000110011 .
b10000000000000100010000110011 F"
b10000000000000100010000110011 -
b10000000000000100010000110011 {"
1o
b0 p
b0 u
b0 1"
b110100100001000101010101100110 A
b110100100001000101010101100110 o"
b110100100001000101010101100110 u"
b110100100001000101010101100110 v"
b110000000000000000000000000000 T
b110000000000000000000000000000 ""
b110000000000000000000000000000 K"
b10 S
b10 }
b10 !"
1X
0J
b10 )
b10 #"
b0 (
b0 r
b0 *
b0 $"
b111 t"
b100001100000000000000 Z
b100001100000000000000 )"
b11000000000000 O
b11000000000000 ~
b110 F
b110 N"
b100 C
b100 E"
b100 P"
b100 (#
b1111 H
b1111 z
b0 \
b0 s
b100000000000000110011001000100 '
b100000000000000110011001000100 3"
b100 w
b11000000100000 ?
b11000000100000 *"
b11000000100000 n"
b11000000011100 @
b11000000011100 -"
b111100000001000011000000000000 N
b111100000001000011000000000000 q"
b11000000011100 M
b11000000011100 R"
b11000000011100 s"
b0 j
b0 `"
0`
1e
1k
1a
bx h
bx d"
b0 i
b0 b"
b0 _
b0 '"
b0 i"
b11 ^
b11 &"
b11 k"
b11 &#
b0 b
b0 g"
b11000000011000 n
b11000000011000 0"
b11000000011000 m
b11000000011000 \"
b10000000000000010001000010001 :
b10000000000000010001000010001 y
b10000000000000010001000010001 :"
b100000000000000110011001000100 ;
b100000000000000110011001000100 8"
b100000000000000110011001000100 w"
b11 9
b11 ("
b11 <"
b11 x"
b11 $#
b1001000010011000 >
b1001000010011000 ,"
b1001000010011000 6"
1!
#7500
b100000000000000110011001000100 z"
b11 |"
0B"
1?"
1C"
b100000000000000110011001000100 9"
b0 7"
b11000000011000 5"
b110000000000000000000000000000 _"
1^"
0Z"
b100 j"
b110 f"
b11000000011100 ["
b110100100001000101010101100110 p"
b11000000100000 r"
b100001100000000000000 /"
b1001000010011000 ."
0!
